{
	"info": {
		"_postman_id": "a9c1abc0-d1d2-4add-b96b-9dded3443164",
		"name": "Postman BCP",
		"schema": "https://schema.getpostman.com/json/collection/v2.1.0/collection.json"
	},
	"item": [
		{
			"name": "Crear un nuevo tipo de cambio",
			"request": {
				"method": "POST",
				"header": [],
				"body": {
					"mode": "raw",
					"raw": "{\r\n    \"channel\": \"WEB\",\r\n    \"currencyOrigin\": \"PEN\",\r\n    \"currencyDestination\": \"DOLAR\",\r\n    \"description\": \"SOLES PERUANOS A DOLARES ESTADOS UNIDENSES\",\r\n    \"strategy\": \"c=a/b\",\r\n    \"symbolCurrencyDestination\": \"$\",\r\n    \"amountExchange\": 5.65\r\n}",
					"options": {
						"raw": {
							"language": "json"
						}
					}
				},
				"url": {
					"raw": "http://localhost:8080/exchangeCurrency/new",
					"protocol": "http",
					"host": [
						"localhost"
					],
					"port": "8080",
					"path": [
						"exchangeCurrency",
						"new"
					]
				}
			},
			"response": []
		},
		{
			"name": "Calcular tipo de cambio",
			"request": {
				"method": "GET",
				"header": [],
				"url": {
					"raw": ""
				}
			},
			"response": []
		},
		{
			"name": "OAuth 2.0",
			"request": {
				"auth": {
					"type": "basic",
					"basic": [
						{
							"key": "password",
							"value": "bcp-secret",
							"type": "string"
						},
						{
							"key": "username",
							"value": "bcp-client",
							"type": "string"
						}
					]
				},
				"method": "POST",
				"header": [
					{
						"key": "Content-Type",
						"value": "application/x-www-form-urlencoded",
						"type": "text"
					},
					{
						"key": "",
						"value": "",
						"type": "text"
					}
				],
				"body": {
					"mode": "urlencoded",
					"urlencoded": [
						{
							"key": "grant_type",
							"value": "password",
							"type": "text"
						},
						{
							"key": "scope",
							"value": "all",
							"type": "text",
							"disabled": true
						},
						{
							"key": "username",
							"value": "Alex123",
							"type": "text"
						},
						{
							"key": "password",
							"value": "password",
							"type": "text"
						}
					]
				},
				"url": {
					"raw": "http://127.0.0.1:8080/oauth/token",
					"protocol": "http",
					"host": [
						"127",
						"0",
						"0",
						"1"
					],
					"port": "8080",
					"path": [
						"oauth",
						"token"
					]
				}
			},
			"response": []
		}
	]
}